[
  {
    "id": 0,
    "transaction_name": "",
    "origin": "",
    "reason": null,
    "create_date": "1970-01-01T00:00:00.042",
    "effective_date": "1970-01-01T00:00:00.042",
    "amount": 0.0,
    "type_id": 0
  },
  {
    "id": 0,
    "transaction_name": "",
    "origin": "",
    "reason": null,
    "create_date": "1970-01-01T00:00:00.042",
    "effective_date": "1970-01-01T00:00:00.042",
    "amount": 0.0,
    "type_id": 0
  },
  {
    "id": 0,
    "transaction_name": "",
    "origin": "",
    "reason": null,
    "create_date": "1970-01-01T00:00:00.042",
    "effective_date": "1970-01-01T00:00:00.042",
    "amount": 0.0,
    "type_id": 0
  }
]